<?xml version="1.0" encoding="UTF-8" standalone="no"?>
<project description="" id="1" linkage="" name="New project 1" version="">
<graphs>
<graph description="" id="2" linkage="" name="New activity diagram 1" type="ACTIVITY_DIAGRAM" version="">
<node description="" height="25.0" id="2" name="START" priority="" style="STYLE_ACTIVITY_START" width="25.0" xpos="156.5" ypos="22.41796875"/>
<edge description="" id="33" name="1" priority="(not defined)" source="2" target="4"/>
<node description="" height="35.0" id="3" name="END A" priority="" style="STYLE_ACTIVITY_END" width="35.0" xpos="205.5" ypos="744.8359375"/>
<node description="Seller fulfill request" height="80.0" id="4" name="Is request Party type ==  &#10;this Party type?" priority="(not defined)" style="STYLE_ACTIVITY_DECISION" width="140.0" xpos="99.0" ypos="97.41796875"/>
<edge description="" id="15" name="Yes1" priority="(not defined)" source="4" target="6"/>
<edge description="" id="16" name="No1" priority="(not defined)" source="4" target="7"/>
<node description="" height="60.0" id="6" name="Do I have product&#10;&#10;" priority="" style="STYLE_ACTIVITY_DECISION" width="110.0" xpos="73.0" ypos="227.41796875"/>
<edge description="" id="18" name="Yes2" priority="(not defined)" source="6" target="8"/>
<edge description="" id="19" name="No2" priority="(not defined)" source="6" target="7"/>
<node description="" height="35.0" id="7" name="Not described END" priority="(not defined)" style="STYLE_ACTIVITY_END" width="35.0" xpos="220.5" ypos="622.376953125"/>
<node description="" height="70.0" id="8" name="Customer paid?&#10;" priority="" style="STYLE_ACTIVITY_DECISION" width="90.0" xpos="68.0" ypos="337.41796875"/>
<edge description="" id="20" name="No3" priority="(not defined)" source="8" target="7"/>
<edge description="" id="21" name="Yes3" priority="(not defined)" source="8" target="9"/>
<node description="" height="80.0" id="9" name="Creator is not customer &#10;or distributor?" priority="(not defined)" style="STYLE_ACTIVITY_DECISION" width="160.0" xpos="18.0" ypos="457.41796875"/>
<edge description="" id="22" name="No4" priority="(not defined)" source="9" target="7"/>
<edge description="" id="23" name="Yes4" priority="(not defined)" source="9" target="12"/>
<node description="" height="110.0" id="10" name="Has list of double-spending &#10;the same creator?" priority="" style="STYLE_ACTIVITY_DECISION" width="180.0" xpos="89.0" ypos="962.3359375"/>
<edge description="" id="24" name="Yes8" priority="(not defined)" source="10" target="32"/>
<edge description="" id="25" name="No8" priority="(not defined)" source="10" target="32"/>
<node description="" height="60.0" id="11" name="Transaction type == Sell?" priority="" style="STYLE_ACTIVITY_DECISION" width="160.0" xpos="13.0" ypos="719.876953125"/>
<edge description="" id="26" name="Yes6" priority="(not defined)" source="11" target="13"/>
<edge description="" id="27" name="No6" priority="(not defined)" source="11" target="12"/>
<node description="" height="80.0" id="12" name="Is the transaction in list?&#10;(loop)" priority="" style="STYLE_ACTIVITY_DECISION" width="160.0" xpos="0.0" ypos="587.41796875"/>
<edge description="" id="28" name="Yes5" priority="(not defined)" source="12" target="11"/>
<edge description="" id="29" name="No5" priority="(not defined)" source="12" target="3"/>
<node description="" height="80.0" id="13" name="Has transaction the &#10;same Uuid with product?&#10;" priority="" style="STYLE_ACTIVITY_DECISION" width="160.0" xpos="101.0" ypos="832.3359375"/>
<edge description="" id="30" name="Yes7" priority="(not defined)" source="13" target="10"/>
<edge description="" id="31" name="No7" priority="(not defined)" source="13" target="12"/>
<node description="" height="35.0" id="32" name="Double spending" priority="(not defined)" style="STYLE_ACTIVITY_END" width="35.0" xpos="161.5" ypos="1149.75390625"/>
<test_case changed="true" combinations_data_rows="9" graph_id="2" name="Test situations 1, TDL= 2, ALG= PCT." note="" test_situations_data_rows="9">
<combinations_data_value col="0" selected_row="0">Do I have product

</combinations_data_value>
<combinations_data_value col="1" selected_row="0">Yes1 - Yes2
Yes1 - No2
</combinations_data_value>
<combinations_data_value col="0" selected_row="1">Customer paid?
</combinations_data_value>
<combinations_data_value col="1" selected_row="1">Yes2 - No3
Yes2 - Yes3
</combinations_data_value>
<combinations_data_value col="0" selected_row="2">Creating request

</combinations_data_value>
<combinations_data_value col="1" selected_row="2">1 - 2
</combinations_data_value>
<combinations_data_value col="0" selected_row="3">Has transaction the 
same Uuid with product?
</combinations_data_value>
<combinations_data_value col="1" selected_row="3">Yes6 - Yes7
Yes6 - No7
</combinations_data_value>
<combinations_data_value col="0" selected_row="4">Has list of double-spending 
the same creator?</combinations_data_value>
<combinations_data_value col="1" selected_row="4">Yes7 - Yes8
Yes7 - No8
</combinations_data_value>
<combinations_data_value col="0" selected_row="5">Is the transaction in list?
(loop)</combinations_data_value>
<combinations_data_value col="1" selected_row="5">Yes4 - Yes5
Yes4 - No5
No6 - Yes5
No6 - No5
No7 - Yes5
No7 - No5
</combinations_data_value>
<combinations_data_value col="0" selected_row="6">Is Party type == 
this Party type?</combinations_data_value>
<combinations_data_value col="1" selected_row="6">2 - Yes1
2 - No1
</combinations_data_value>
<combinations_data_value col="0" selected_row="7">Transaction type == Sell?</combinations_data_value>
<combinations_data_value col="1" selected_row="7">Yes5 - Yes6
Yes5 - No6
</combinations_data_value>
<combinations_data_value col="0" selected_row="8">Creator is customer
 or distributor?</combinations_data_value>
<combinations_data_value col="1" selected_row="8">Yes3 - No4
Yes3 - Yes4
</combinations_data_value>
<test_situation_row>
<value edge_id="14" name="1"/>
<value edge_id="17" name="2"/>
<value edge_id="15" name="Yes1"/>
<value edge_id="18" name="Yes2"/>
<value edge_id="21" name="Yes3"/>
<value edge_id="23" name="Yes4"/>
<value edge_id="28" name="Yes5"/>
<value edge_id="26" name="Yes6"/>
<value edge_id="31" name="No7"/>
<value edge_id="28" name="Yes5"/>
<value edge_id="27" name="No6"/>
<value edge_id="28" name="Yes5"/>
<value edge_id="26" name="Yes6"/>
<value edge_id="31" name="No7"/>
<value edge_id="29" name="No5"/>
</test_situation_row>
<test_situation_row>
<value edge_id="14" name="1"/>
<value edge_id="17" name="2"/>
<value edge_id="15" name="Yes1"/>
<value edge_id="18" name="Yes2"/>
<value edge_id="21" name="Yes3"/>
<value edge_id="23" name="Yes4"/>
<value edge_id="29" name="No5"/>
</test_situation_row>
<test_situation_row>
<value edge_id="14" name="1"/>
<value edge_id="17" name="2"/>
<value edge_id="15" name="Yes1"/>
<value edge_id="18" name="Yes2"/>
<value edge_id="21" name="Yes3"/>
<value edge_id="23" name="Yes4"/>
<value edge_id="28" name="Yes5"/>
<value edge_id="27" name="No6"/>
<value edge_id="29" name="No5"/>
</test_situation_row>
<test_situation_row>
<value edge_id="14" name="1"/>
<value edge_id="17" name="2"/>
<value edge_id="15" name="Yes1"/>
<value edge_id="19" name="No2"/>
</test_situation_row>
<test_situation_row>
<value edge_id="14" name="1"/>
<value edge_id="17" name="2"/>
<value edge_id="16" name="No1"/>
</test_situation_row>
<test_situation_row>
<value edge_id="14" name="1"/>
<value edge_id="17" name="2"/>
<value edge_id="15" name="Yes1"/>
<value edge_id="18" name="Yes2"/>
<value edge_id="20" name="No3"/>
</test_situation_row>
<test_situation_row>
<value edge_id="14" name="1"/>
<value edge_id="17" name="2"/>
<value edge_id="15" name="Yes1"/>
<value edge_id="18" name="Yes2"/>
<value edge_id="21" name="Yes3"/>
<value edge_id="22" name="No4"/>
</test_situation_row>
<test_situation_row>
<value edge_id="14" name="1"/>
<value edge_id="17" name="2"/>
<value edge_id="15" name="Yes1"/>
<value edge_id="18" name="Yes2"/>
<value edge_id="21" name="Yes3"/>
<value edge_id="23" name="Yes4"/>
<value edge_id="28" name="Yes5"/>
<value edge_id="26" name="Yes6"/>
<value edge_id="30" name="Yes7"/>
<value edge_id="24" name="Yes8"/>
</test_situation_row>
<test_situation_row>
<value edge_id="14" name="1"/>
<value edge_id="17" name="2"/>
<value edge_id="15" name="Yes1"/>
<value edge_id="18" name="Yes2"/>
<value edge_id="21" name="Yes3"/>
<value edge_id="23" name="Yes4"/>
<value edge_id="28" name="Yes5"/>
<value edge_id="26" name="Yes6"/>
<value edge_id="30" name="Yes7"/>
<value edge_id="25" name="No8"/>
</test_situation_row>
</test_case>
<test_case changed="true" combinations_data_rows="9" graph_id="2" name="Test situations 2, TDL= 2, ALG= PCT." note="" test_situations_data_rows="9">
<combinations_data_value col="0" selected_row="0">Do I have product

</combinations_data_value>
<combinations_data_value col="1" selected_row="0">Yes1 - Yes2
Yes1 - No2
</combinations_data_value>
<combinations_data_value col="0" selected_row="1">Customer paid?
</combinations_data_value>
<combinations_data_value col="1" selected_row="1">Yes2 - No3
Yes2 - Yes3
</combinations_data_value>
<combinations_data_value col="0" selected_row="2">Creating request

</combinations_data_value>
<combinations_data_value col="1" selected_row="2">1 - 2
</combinations_data_value>
<combinations_data_value col="0" selected_row="3">Has transaction the 
same Uuid with product?
</combinations_data_value>
<combinations_data_value col="1" selected_row="3">Yes6 - Yes7
Yes6 - No7
</combinations_data_value>
<combinations_data_value col="0" selected_row="4">Has list of double-spending 
the same creator?</combinations_data_value>
<combinations_data_value col="1" selected_row="4">Yes7 - Yes8
Yes7 - No8
</combinations_data_value>
<combinations_data_value col="0" selected_row="5">Is the transaction in list?
(loop)</combinations_data_value>
<combinations_data_value col="1" selected_row="5">Yes4 - Yes5
Yes4 - No5
No6 - Yes5
No6 - No5
No7 - Yes5
No7 - No5
</combinations_data_value>
<combinations_data_value col="0" selected_row="6">Is Party type == 
this Party type?</combinations_data_value>
<combinations_data_value col="1" selected_row="6">2 - Yes1
2 - No1
</combinations_data_value>
<combinations_data_value col="0" selected_row="7">Transaction type == Sell?</combinations_data_value>
<combinations_data_value col="1" selected_row="7">Yes5 - Yes6
Yes5 - No6
</combinations_data_value>
<combinations_data_value col="0" selected_row="8">Creator is customer
 or distributor?</combinations_data_value>
<combinations_data_value col="1" selected_row="8">Yes3 - No4
Yes3 - Yes4
</combinations_data_value>
<test_situation_row>
<value edge_id="14" name="1"/>
<value edge_id="17" name="2"/>
<value edge_id="15" name="Yes1"/>
<value edge_id="18" name="Yes2"/>
<value edge_id="21" name="Yes3"/>
<value edge_id="23" name="Yes4"/>
<value edge_id="28" name="Yes5"/>
<value edge_id="26" name="Yes6"/>
<value edge_id="31" name="No7"/>
<value edge_id="28" name="Yes5"/>
<value edge_id="27" name="No6"/>
<value edge_id="28" name="Yes5"/>
<value edge_id="26" name="Yes6"/>
<value edge_id="31" name="No7"/>
<value edge_id="29" name="No5"/>
</test_situation_row>
<test_situation_row>
<value edge_id="14" name="1"/>
<value edge_id="17" name="2"/>
<value edge_id="15" name="Yes1"/>
<value edge_id="18" name="Yes2"/>
<value edge_id="21" name="Yes3"/>
<value edge_id="23" name="Yes4"/>
<value edge_id="29" name="No5"/>
</test_situation_row>
<test_situation_row>
<value edge_id="14" name="1"/>
<value edge_id="17" name="2"/>
<value edge_id="15" name="Yes1"/>
<value edge_id="18" name="Yes2"/>
<value edge_id="21" name="Yes3"/>
<value edge_id="23" name="Yes4"/>
<value edge_id="28" name="Yes5"/>
<value edge_id="27" name="No6"/>
<value edge_id="29" name="No5"/>
</test_situation_row>
<test_situation_row>
<value edge_id="14" name="1"/>
<value edge_id="17" name="2"/>
<value edge_id="15" name="Yes1"/>
<value edge_id="19" name="No2"/>
</test_situation_row>
<test_situation_row>
<value edge_id="14" name="1"/>
<value edge_id="17" name="2"/>
<value edge_id="16" name="No1"/>
</test_situation_row>
<test_situation_row>
<value edge_id="14" name="1"/>
<value edge_id="17" name="2"/>
<value edge_id="15" name="Yes1"/>
<value edge_id="18" name="Yes2"/>
<value edge_id="20" name="No3"/>
</test_situation_row>
<test_situation_row>
<value edge_id="14" name="1"/>
<value edge_id="17" name="2"/>
<value edge_id="15" name="Yes1"/>
<value edge_id="18" name="Yes2"/>
<value edge_id="21" name="Yes3"/>
<value edge_id="22" name="No4"/>
</test_situation_row>
<test_situation_row>
<value edge_id="14" name="1"/>
<value edge_id="17" name="2"/>
<value edge_id="15" name="Yes1"/>
<value edge_id="18" name="Yes2"/>
<value edge_id="21" name="Yes3"/>
<value edge_id="23" name="Yes4"/>
<value edge_id="28" name="Yes5"/>
<value edge_id="26" name="Yes6"/>
<value edge_id="30" name="Yes7"/>
<value edge_id="24" name="Yes8"/>
</test_situation_row>
<test_situation_row>
<value edge_id="14" name="1"/>
<value edge_id="17" name="2"/>
<value edge_id="15" name="Yes1"/>
<value edge_id="18" name="Yes2"/>
<value edge_id="21" name="Yes3"/>
<value edge_id="23" name="Yes4"/>
<value edge_id="28" name="Yes5"/>
<value edge_id="26" name="Yes6"/>
<value edge_id="30" name="Yes7"/>
<value edge_id="25" name="No8"/>
</test_situation_row>
</test_case>
<test_case changed="true" combinations_data_rows="9" graph_id="2" name="Test situations 3, TDL= 2, ALG= PCT." note="" test_situations_data_rows="9">
<combinations_data_value col="0" selected_row="0">Do I have product

</combinations_data_value>
<combinations_data_value col="1" selected_row="0">Yes1 - Yes2
Yes1 - No2
</combinations_data_value>
<combinations_data_value col="0" selected_row="1">Customer paid?
</combinations_data_value>
<combinations_data_value col="1" selected_row="1">Yes2 - No3
Yes2 - Yes3
</combinations_data_value>
<combinations_data_value col="0" selected_row="2">Creating request

</combinations_data_value>
<combinations_data_value col="1" selected_row="2">1 - 2
</combinations_data_value>
<combinations_data_value col="0" selected_row="3">Has transaction the 
same Uuid with product?
</combinations_data_value>
<combinations_data_value col="1" selected_row="3">Yes6 - Yes7
Yes6 - No7
</combinations_data_value>
<combinations_data_value col="0" selected_row="4">Has list of double-spending 
the same creator?</combinations_data_value>
<combinations_data_value col="1" selected_row="4">Yes7 - Yes8
Yes7 - No8
</combinations_data_value>
<combinations_data_value col="0" selected_row="5">Is the transaction in list?
(loop)</combinations_data_value>
<combinations_data_value col="1" selected_row="5">Yes4 - Yes5
Yes4 - No5
No6 - Yes5
No6 - No5
No7 - Yes5
No7 - No5
</combinations_data_value>
<combinations_data_value col="0" selected_row="6">Is Party type == 
this Party type?</combinations_data_value>
<combinations_data_value col="1" selected_row="6">2 - Yes1
2 - No1
</combinations_data_value>
<combinations_data_value col="0" selected_row="7">Transaction type == Sell?</combinations_data_value>
<combinations_data_value col="1" selected_row="7">Yes5 - Yes6
Yes5 - No6
</combinations_data_value>
<combinations_data_value col="0" selected_row="8">Creator is customer
 or distributor?</combinations_data_value>
<combinations_data_value col="1" selected_row="8">Yes3 - No4
Yes3 - Yes4
</combinations_data_value>
<test_situation_row>
<value edge_id="14" name="1"/>
<value edge_id="17" name="2"/>
<value edge_id="15" name="Yes1"/>
<value edge_id="18" name="Yes2"/>
<value edge_id="21" name="Yes3"/>
<value edge_id="23" name="Yes4"/>
<value edge_id="28" name="Yes5"/>
<value edge_id="26" name="Yes6"/>
<value edge_id="31" name="No7"/>
<value edge_id="28" name="Yes5"/>
<value edge_id="27" name="No6"/>
<value edge_id="28" name="Yes5"/>
<value edge_id="26" name="Yes6"/>
<value edge_id="31" name="No7"/>
<value edge_id="29" name="No5"/>
</test_situation_row>
<test_situation_row>
<value edge_id="14" name="1"/>
<value edge_id="17" name="2"/>
<value edge_id="15" name="Yes1"/>
<value edge_id="18" name="Yes2"/>
<value edge_id="21" name="Yes3"/>
<value edge_id="23" name="Yes4"/>
<value edge_id="29" name="No5"/>
</test_situation_row>
<test_situation_row>
<value edge_id="14" name="1"/>
<value edge_id="17" name="2"/>
<value edge_id="15" name="Yes1"/>
<value edge_id="18" name="Yes2"/>
<value edge_id="21" name="Yes3"/>
<value edge_id="23" name="Yes4"/>
<value edge_id="28" name="Yes5"/>
<value edge_id="27" name="No6"/>
<value edge_id="29" name="No5"/>
</test_situation_row>
<test_situation_row>
<value edge_id="14" name="1"/>
<value edge_id="17" name="2"/>
<value edge_id="15" name="Yes1"/>
<value edge_id="19" name="No2"/>
</test_situation_row>
<test_situation_row>
<value edge_id="14" name="1"/>
<value edge_id="17" name="2"/>
<value edge_id="16" name="No1"/>
</test_situation_row>
<test_situation_row>
<value edge_id="14" name="1"/>
<value edge_id="17" name="2"/>
<value edge_id="15" name="Yes1"/>
<value edge_id="18" name="Yes2"/>
<value edge_id="20" name="No3"/>
</test_situation_row>
<test_situation_row>
<value edge_id="14" name="1"/>
<value edge_id="17" name="2"/>
<value edge_id="15" name="Yes1"/>
<value edge_id="18" name="Yes2"/>
<value edge_id="21" name="Yes3"/>
<value edge_id="22" name="No4"/>
</test_situation_row>
<test_situation_row>
<value edge_id="14" name="1"/>
<value edge_id="17" name="2"/>
<value edge_id="15" name="Yes1"/>
<value edge_id="18" name="Yes2"/>
<value edge_id="21" name="Yes3"/>
<value edge_id="23" name="Yes4"/>
<value edge_id="28" name="Yes5"/>
<value edge_id="26" name="Yes6"/>
<value edge_id="30" name="Yes7"/>
<value edge_id="24" name="Yes8"/>
</test_situation_row>
<test_situation_row>
<value edge_id="14" name="1"/>
<value edge_id="17" name="2"/>
<value edge_id="15" name="Yes1"/>
<value edge_id="18" name="Yes2"/>
<value edge_id="21" name="Yes3"/>
<value edge_id="23" name="Yes4"/>
<value edge_id="28" name="Yes5"/>
<value edge_id="26" name="Yes6"/>
<value edge_id="30" name="Yes7"/>
<value edge_id="25" name="No8"/>
</test_situation_row>
</test_case>
<test_case changed="true" combinations_data_rows="9" graph_id="2" name="Test situations 4, TDL= 2, ALG= PCT." note="" test_situations_data_rows="9">
<combinations_data_value col="0" selected_row="0">Do I have product

</combinations_data_value>
<combinations_data_value col="1" selected_row="0">Yes1 - Yes2
Yes1 - No2
</combinations_data_value>
<combinations_data_value col="0" selected_row="1">Customer paid?
</combinations_data_value>
<combinations_data_value col="1" selected_row="1">Yes2 - No3
Yes2 - Yes3
</combinations_data_value>
<combinations_data_value col="0" selected_row="2">Creating request

</combinations_data_value>
<combinations_data_value col="1" selected_row="2">1 - 2
</combinations_data_value>
<combinations_data_value col="0" selected_row="3">Has transaction the 
same Uuid with product?
</combinations_data_value>
<combinations_data_value col="1" selected_row="3">Yes6 - Yes7
Yes6 - No7
</combinations_data_value>
<combinations_data_value col="0" selected_row="4">Has list of double-spending 
the same creator?</combinations_data_value>
<combinations_data_value col="1" selected_row="4">Yes7 - Yes8
Yes7 - No8
</combinations_data_value>
<combinations_data_value col="0" selected_row="5">Is the transaction in list?
(loop)</combinations_data_value>
<combinations_data_value col="1" selected_row="5">Yes4 - Yes5
Yes4 - No5
No6 - Yes5
No6 - No5
No7 - Yes5
No7 - No5
</combinations_data_value>
<combinations_data_value col="0" selected_row="6">Is Party type == 
this Party type?</combinations_data_value>
<combinations_data_value col="1" selected_row="6">2 - Yes1
2 - No1
</combinations_data_value>
<combinations_data_value col="0" selected_row="7">Transaction type == Sell?</combinations_data_value>
<combinations_data_value col="1" selected_row="7">Yes5 - Yes6
Yes5 - No6
</combinations_data_value>
<combinations_data_value col="0" selected_row="8">Creator is customer
 or distributor?</combinations_data_value>
<combinations_data_value col="1" selected_row="8">Yes3 - No4
Yes3 - Yes4
</combinations_data_value>
<test_situation_row>
<value edge_id="14" name="1"/>
<value edge_id="17" name="2"/>
<value edge_id="15" name="Yes1"/>
<value edge_id="18" name="Yes2"/>
<value edge_id="21" name="Yes3"/>
<value edge_id="23" name="Yes4"/>
<value edge_id="28" name="Yes5"/>
<value edge_id="26" name="Yes6"/>
<value edge_id="31" name="No7"/>
<value edge_id="28" name="Yes5"/>
<value edge_id="27" name="No6"/>
<value edge_id="28" name="Yes5"/>
<value edge_id="26" name="Yes6"/>
<value edge_id="31" name="No7"/>
<value edge_id="29" name="No5"/>
</test_situation_row>
<test_situation_row>
<value edge_id="14" name="1"/>
<value edge_id="17" name="2"/>
<value edge_id="15" name="Yes1"/>
<value edge_id="18" name="Yes2"/>
<value edge_id="21" name="Yes3"/>
<value edge_id="23" name="Yes4"/>
<value edge_id="29" name="No5"/>
</test_situation_row>
<test_situation_row>
<value edge_id="14" name="1"/>
<value edge_id="17" name="2"/>
<value edge_id="15" name="Yes1"/>
<value edge_id="18" name="Yes2"/>
<value edge_id="21" name="Yes3"/>
<value edge_id="23" name="Yes4"/>
<value edge_id="28" name="Yes5"/>
<value edge_id="27" name="No6"/>
<value edge_id="29" name="No5"/>
</test_situation_row>
<test_situation_row>
<value edge_id="14" name="1"/>
<value edge_id="17" name="2"/>
<value edge_id="15" name="Yes1"/>
<value edge_id="19" name="No2"/>
</test_situation_row>
<test_situation_row>
<value edge_id="14" name="1"/>
<value edge_id="17" name="2"/>
<value edge_id="16" name="No1"/>
</test_situation_row>
<test_situation_row>
<value edge_id="14" name="1"/>
<value edge_id="17" name="2"/>
<value edge_id="15" name="Yes1"/>
<value edge_id="18" name="Yes2"/>
<value edge_id="20" name="No3"/>
</test_situation_row>
<test_situation_row>
<value edge_id="14" name="1"/>
<value edge_id="17" name="2"/>
<value edge_id="15" name="Yes1"/>
<value edge_id="18" name="Yes2"/>
<value edge_id="21" name="Yes3"/>
<value edge_id="22" name="No4"/>
</test_situation_row>
<test_situation_row>
<value edge_id="14" name="1"/>
<value edge_id="17" name="2"/>
<value edge_id="15" name="Yes1"/>
<value edge_id="18" name="Yes2"/>
<value edge_id="21" name="Yes3"/>
<value edge_id="23" name="Yes4"/>
<value edge_id="28" name="Yes5"/>
<value edge_id="26" name="Yes6"/>
<value edge_id="30" name="Yes7"/>
<value edge_id="24" name="Yes8"/>
</test_situation_row>
<test_situation_row>
<value edge_id="14" name="1"/>
<value edge_id="17" name="2"/>
<value edge_id="15" name="Yes1"/>
<value edge_id="18" name="Yes2"/>
<value edge_id="21" name="Yes3"/>
<value edge_id="23" name="Yes4"/>
<value edge_id="28" name="Yes5"/>
<value edge_id="26" name="Yes6"/>
<value edge_id="30" name="Yes7"/>
<value edge_id="25" name="No8"/>
</test_situation_row>
</test_case>
<test_case changed="true" combinations_data_rows="9" graph_id="2" name="Test situations 5, TDL= 2, ALG= PCT." note="" test_situations_data_rows="9">
<combinations_data_value col="0" selected_row="0">Do I have product

</combinations_data_value>
<combinations_data_value col="1" selected_row="0">Yes1 - Yes2
Yes1 - No2
</combinations_data_value>
<combinations_data_value col="0" selected_row="1">Customer paid?
</combinations_data_value>
<combinations_data_value col="1" selected_row="1">Yes2 - No3
Yes2 - Yes3
</combinations_data_value>
<combinations_data_value col="0" selected_row="2">Creating request

</combinations_data_value>
<combinations_data_value col="1" selected_row="2">1 - 2
</combinations_data_value>
<combinations_data_value col="0" selected_row="3">Has transaction the 
same Uuid with product?
</combinations_data_value>
<combinations_data_value col="1" selected_row="3">Yes6 - Yes7
Yes6 - No7
</combinations_data_value>
<combinations_data_value col="0" selected_row="4">Has list of double-spending 
the same creator?</combinations_data_value>
<combinations_data_value col="1" selected_row="4">Yes7 - Yes8
Yes7 - No8
</combinations_data_value>
<combinations_data_value col="0" selected_row="5">Is the transaction in list?
(loop)</combinations_data_value>
<combinations_data_value col="1" selected_row="5">Yes4 - Yes5
Yes4 - No5
No6 - Yes5
No6 - No5
No7 - Yes5
No7 - No5
</combinations_data_value>
<combinations_data_value col="0" selected_row="6">Is request Party type ==  
this Party type?</combinations_data_value>
<combinations_data_value col="1" selected_row="6">2 - Yes1
2 - No1
</combinations_data_value>
<combinations_data_value col="0" selected_row="7">Transaction type == Sell?</combinations_data_value>
<combinations_data_value col="1" selected_row="7">Yes5 - Yes6
Yes5 - No6
</combinations_data_value>
<combinations_data_value col="0" selected_row="8">Creator is not customer 
or distributor?</combinations_data_value>
<combinations_data_value col="1" selected_row="8">Yes3 - No4
Yes3 - Yes4
</combinations_data_value>
<test_situation_row>
<value edge_id="14" name="1"/>
<value edge_id="17" name="2"/>
<value edge_id="15" name="Yes1"/>
<value edge_id="18" name="Yes2"/>
<value edge_id="21" name="Yes3"/>
<value edge_id="23" name="Yes4"/>
<value edge_id="28" name="Yes5"/>
<value edge_id="26" name="Yes6"/>
<value edge_id="31" name="No7"/>
<value edge_id="28" name="Yes5"/>
<value edge_id="27" name="No6"/>
<value edge_id="28" name="Yes5"/>
<value edge_id="26" name="Yes6"/>
<value edge_id="31" name="No7"/>
<value edge_id="29" name="No5"/>
</test_situation_row>
<test_situation_row>
<value edge_id="14" name="1"/>
<value edge_id="17" name="2"/>
<value edge_id="15" name="Yes1"/>
<value edge_id="18" name="Yes2"/>
<value edge_id="21" name="Yes3"/>
<value edge_id="23" name="Yes4"/>
<value edge_id="29" name="No5"/>
</test_situation_row>
<test_situation_row>
<value edge_id="14" name="1"/>
<value edge_id="17" name="2"/>
<value edge_id="15" name="Yes1"/>
<value edge_id="18" name="Yes2"/>
<value edge_id="21" name="Yes3"/>
<value edge_id="23" name="Yes4"/>
<value edge_id="28" name="Yes5"/>
<value edge_id="27" name="No6"/>
<value edge_id="29" name="No5"/>
</test_situation_row>
<test_situation_row>
<value edge_id="14" name="1"/>
<value edge_id="17" name="2"/>
<value edge_id="15" name="Yes1"/>
<value edge_id="19" name="No2"/>
</test_situation_row>
<test_situation_row>
<value edge_id="14" name="1"/>
<value edge_id="17" name="2"/>
<value edge_id="16" name="No1"/>
</test_situation_row>
<test_situation_row>
<value edge_id="14" name="1"/>
<value edge_id="17" name="2"/>
<value edge_id="15" name="Yes1"/>
<value edge_id="18" name="Yes2"/>
<value edge_id="20" name="No3"/>
</test_situation_row>
<test_situation_row>
<value edge_id="14" name="1"/>
<value edge_id="17" name="2"/>
<value edge_id="15" name="Yes1"/>
<value edge_id="18" name="Yes2"/>
<value edge_id="21" name="Yes3"/>
<value edge_id="22" name="No4"/>
</test_situation_row>
<test_situation_row>
<value edge_id="14" name="1"/>
<value edge_id="17" name="2"/>
<value edge_id="15" name="Yes1"/>
<value edge_id="18" name="Yes2"/>
<value edge_id="21" name="Yes3"/>
<value edge_id="23" name="Yes4"/>
<value edge_id="28" name="Yes5"/>
<value edge_id="26" name="Yes6"/>
<value edge_id="30" name="Yes7"/>
<value edge_id="24" name="Yes8"/>
</test_situation_row>
<test_situation_row>
<value edge_id="14" name="1"/>
<value edge_id="17" name="2"/>
<value edge_id="15" name="Yes1"/>
<value edge_id="18" name="Yes2"/>
<value edge_id="21" name="Yes3"/>
<value edge_id="23" name="Yes4"/>
<value edge_id="28" name="Yes5"/>
<value edge_id="26" name="Yes6"/>
<value edge_id="30" name="Yes7"/>
<value edge_id="25" name="No8"/>
</test_situation_row>
</test_case>
<test_case changed="false" combinations_data_rows="8" graph_id="2" name="Test situations 6, TDL= 2, ALG= PCT." note="" test_situations_data_rows="9">
<combinations_data_value col="0" selected_row="0">Do I have product

</combinations_data_value>
<combinations_data_value col="1" selected_row="0">Yes1 - Yes2
Yes1 - No2
</combinations_data_value>
<combinations_data_value col="0" selected_row="1">Customer paid?
</combinations_data_value>
<combinations_data_value col="1" selected_row="1">Yes2 - No3
Yes2 - Yes3
</combinations_data_value>
<combinations_data_value col="0" selected_row="2">Has transaction the 
same Uuid with product?
</combinations_data_value>
<combinations_data_value col="1" selected_row="2">Yes6 - Yes7
Yes6 - No7
</combinations_data_value>
<combinations_data_value col="0" selected_row="3">Has list of double-spending 
the same creator?</combinations_data_value>
<combinations_data_value col="1" selected_row="3">Yes7 - Yes8
Yes7 - No8
</combinations_data_value>
<combinations_data_value col="0" selected_row="4">Is the transaction in list?
(loop)</combinations_data_value>
<combinations_data_value col="1" selected_row="4">Yes4 - Yes5
Yes4 - No5
No6 - Yes5
No6 - No5
No7 - Yes5
No7 - No5
</combinations_data_value>
<combinations_data_value col="0" selected_row="5">Is request Party type ==  
this Party type?</combinations_data_value>
<combinations_data_value col="1" selected_row="5">1 - Yes1
1 - No1
</combinations_data_value>
<combinations_data_value col="0" selected_row="6">Transaction type == Sell?</combinations_data_value>
<combinations_data_value col="1" selected_row="6">Yes5 - Yes6
Yes5 - No6
</combinations_data_value>
<combinations_data_value col="0" selected_row="7">Creator is not customer 
or distributor?</combinations_data_value>
<combinations_data_value col="1" selected_row="7">Yes3 - No4
Yes3 - Yes4
</combinations_data_value>
<test_situation_row>
<value edge_id="33" name="1"/>
<value edge_id="15" name="Yes1"/>
<value edge_id="18" name="Yes2"/>
<value edge_id="21" name="Yes3"/>
<value edge_id="23" name="Yes4"/>
<value edge_id="28" name="Yes5"/>
<value edge_id="26" name="Yes6"/>
<value edge_id="31" name="No7"/>
<value edge_id="28" name="Yes5"/>
<value edge_id="27" name="No6"/>
<value edge_id="28" name="Yes5"/>
<value edge_id="26" name="Yes6"/>
<value edge_id="31" name="No7"/>
<value edge_id="29" name="No5"/>
</test_situation_row>
<test_situation_row>
<value edge_id="33" name="1"/>
<value edge_id="15" name="Yes1"/>
<value edge_id="18" name="Yes2"/>
<value edge_id="21" name="Yes3"/>
<value edge_id="23" name="Yes4"/>
<value edge_id="29" name="No5"/>
</test_situation_row>
<test_situation_row>
<value edge_id="33" name="1"/>
<value edge_id="15" name="Yes1"/>
<value edge_id="18" name="Yes2"/>
<value edge_id="21" name="Yes3"/>
<value edge_id="23" name="Yes4"/>
<value edge_id="28" name="Yes5"/>
<value edge_id="27" name="No6"/>
<value edge_id="29" name="No5"/>
</test_situation_row>
<test_situation_row>
<value edge_id="33" name="1"/>
<value edge_id="16" name="No1"/>
</test_situation_row>
<test_situation_row>
<value edge_id="33" name="1"/>
<value edge_id="15" name="Yes1"/>
<value edge_id="19" name="No2"/>
</test_situation_row>
<test_situation_row>
<value edge_id="33" name="1"/>
<value edge_id="15" name="Yes1"/>
<value edge_id="18" name="Yes2"/>
<value edge_id="20" name="No3"/>
</test_situation_row>
<test_situation_row>
<value edge_id="33" name="1"/>
<value edge_id="15" name="Yes1"/>
<value edge_id="18" name="Yes2"/>
<value edge_id="21" name="Yes3"/>
<value edge_id="22" name="No4"/>
</test_situation_row>
<test_situation_row>
<value edge_id="33" name="1"/>
<value edge_id="15" name="Yes1"/>
<value edge_id="18" name="Yes2"/>
<value edge_id="21" name="Yes3"/>
<value edge_id="23" name="Yes4"/>
<value edge_id="28" name="Yes5"/>
<value edge_id="26" name="Yes6"/>
<value edge_id="30" name="Yes7"/>
<value edge_id="24" name="Yes8"/>
</test_situation_row>
<test_situation_row>
<value edge_id="33" name="1"/>
<value edge_id="15" name="Yes1"/>
<value edge_id="18" name="Yes2"/>
<value edge_id="21" name="Yes3"/>
<value edge_id="23" name="Yes4"/>
<value edge_id="28" name="Yes5"/>
<value edge_id="26" name="Yes6"/>
<value edge_id="30" name="Yes7"/>
<value edge_id="25" name="No8"/>
</test_situation_row>
</test_case>
<test_case changed="false" combinations_data_rows="8" graph_id="2" name="Test situations 7, TDL= 2, ALG= PCT." note="" test_situations_data_rows="9">
<combinations_data_value col="0" selected_row="0">Do I have product

</combinations_data_value>
<combinations_data_value col="1" selected_row="0">Yes1 - Yes2
Yes1 - No2
</combinations_data_value>
<combinations_data_value col="0" selected_row="1">Customer paid?
</combinations_data_value>
<combinations_data_value col="1" selected_row="1">Yes2 - No3
Yes2 - Yes3
</combinations_data_value>
<combinations_data_value col="0" selected_row="2">Has transaction the 
same Uuid with product?
</combinations_data_value>
<combinations_data_value col="1" selected_row="2">Yes6 - Yes7
Yes6 - No7
</combinations_data_value>
<combinations_data_value col="0" selected_row="3">Has list of double-spending 
the same creator?</combinations_data_value>
<combinations_data_value col="1" selected_row="3">Yes7 - Yes8
Yes7 - No8
</combinations_data_value>
<combinations_data_value col="0" selected_row="4">Is the transaction in list?
(loop)</combinations_data_value>
<combinations_data_value col="1" selected_row="4">Yes4 - Yes5
Yes4 - No5
No6 - Yes5
No6 - No5
No7 - Yes5
No7 - No5
</combinations_data_value>
<combinations_data_value col="0" selected_row="5">Is request Party type ==  
this Party type?</combinations_data_value>
<combinations_data_value col="1" selected_row="5">1 - Yes1
1 - No1
</combinations_data_value>
<combinations_data_value col="0" selected_row="6">Transaction type == Sell?</combinations_data_value>
<combinations_data_value col="1" selected_row="6">Yes5 - Yes6
Yes5 - No6
</combinations_data_value>
<combinations_data_value col="0" selected_row="7">Creator is not customer 
or distributor?</combinations_data_value>
<combinations_data_value col="1" selected_row="7">Yes3 - No4
Yes3 - Yes4
</combinations_data_value>
<test_situation_row>
<value edge_id="33" name="1"/>
<value edge_id="15" name="Yes1"/>
<value edge_id="18" name="Yes2"/>
<value edge_id="21" name="Yes3"/>
<value edge_id="23" name="Yes4"/>
<value edge_id="28" name="Yes5"/>
<value edge_id="26" name="Yes6"/>
<value edge_id="31" name="No7"/>
<value edge_id="28" name="Yes5"/>
<value edge_id="27" name="No6"/>
<value edge_id="28" name="Yes5"/>
<value edge_id="26" name="Yes6"/>
<value edge_id="31" name="No7"/>
<value edge_id="29" name="No5"/>
</test_situation_row>
<test_situation_row>
<value edge_id="33" name="1"/>
<value edge_id="15" name="Yes1"/>
<value edge_id="18" name="Yes2"/>
<value edge_id="21" name="Yes3"/>
<value edge_id="23" name="Yes4"/>
<value edge_id="29" name="No5"/>
</test_situation_row>
<test_situation_row>
<value edge_id="33" name="1"/>
<value edge_id="15" name="Yes1"/>
<value edge_id="18" name="Yes2"/>
<value edge_id="21" name="Yes3"/>
<value edge_id="23" name="Yes4"/>
<value edge_id="28" name="Yes5"/>
<value edge_id="27" name="No6"/>
<value edge_id="29" name="No5"/>
</test_situation_row>
<test_situation_row>
<value edge_id="33" name="1"/>
<value edge_id="16" name="No1"/>
</test_situation_row>
<test_situation_row>
<value edge_id="33" name="1"/>
<value edge_id="15" name="Yes1"/>
<value edge_id="19" name="No2"/>
</test_situation_row>
<test_situation_row>
<value edge_id="33" name="1"/>
<value edge_id="15" name="Yes1"/>
<value edge_id="18" name="Yes2"/>
<value edge_id="20" name="No3"/>
</test_situation_row>
<test_situation_row>
<value edge_id="33" name="1"/>
<value edge_id="15" name="Yes1"/>
<value edge_id="18" name="Yes2"/>
<value edge_id="21" name="Yes3"/>
<value edge_id="22" name="No4"/>
</test_situation_row>
<test_situation_row>
<value edge_id="33" name="1"/>
<value edge_id="15" name="Yes1"/>
<value edge_id="18" name="Yes2"/>
<value edge_id="21" name="Yes3"/>
<value edge_id="23" name="Yes4"/>
<value edge_id="28" name="Yes5"/>
<value edge_id="26" name="Yes6"/>
<value edge_id="30" name="Yes7"/>
<value edge_id="24" name="Yes8"/>
</test_situation_row>
<test_situation_row>
<value edge_id="33" name="1"/>
<value edge_id="15" name="Yes1"/>
<value edge_id="18" name="Yes2"/>
<value edge_id="21" name="Yes3"/>
<value edge_id="23" name="Yes4"/>
<value edge_id="28" name="Yes5"/>
<value edge_id="26" name="Yes6"/>
<value edge_id="30" name="Yes7"/>
<value edge_id="25" name="No8"/>
</test_situation_row>
</test_case>
<test_case changed="false" combinations_data_rows="8" graph_id="2" name="Test situations 8, TDL= 2, ALG= PCT." note="" test_situations_data_rows="9">
<combinations_data_value col="0" selected_row="0">Do I have product

</combinations_data_value>
<combinations_data_value col="1" selected_row="0">Yes1 - Yes2
Yes1 - No2
</combinations_data_value>
<combinations_data_value col="0" selected_row="1">Customer paid?
</combinations_data_value>
<combinations_data_value col="1" selected_row="1">Yes2 - No3
Yes2 - Yes3
</combinations_data_value>
<combinations_data_value col="0" selected_row="2">Has transaction the 
same Uuid with product?
</combinations_data_value>
<combinations_data_value col="1" selected_row="2">Yes6 - Yes7
Yes6 - No7
</combinations_data_value>
<combinations_data_value col="0" selected_row="3">Has list of double-spending 
the same creator?</combinations_data_value>
<combinations_data_value col="1" selected_row="3">Yes7 - Yes8
Yes7 - No8
</combinations_data_value>
<combinations_data_value col="0" selected_row="4">Is the transaction in list?
(loop)</combinations_data_value>
<combinations_data_value col="1" selected_row="4">Yes4 - Yes5
Yes4 - No5
No6 - Yes5
No6 - No5
No7 - Yes5
No7 - No5
</combinations_data_value>
<combinations_data_value col="0" selected_row="5">Is request Party type ==  
this Party type?</combinations_data_value>
<combinations_data_value col="1" selected_row="5">1 - Yes1
1 - No1
</combinations_data_value>
<combinations_data_value col="0" selected_row="6">Transaction type == Sell?</combinations_data_value>
<combinations_data_value col="1" selected_row="6">Yes5 - Yes6
Yes5 - No6
</combinations_data_value>
<combinations_data_value col="0" selected_row="7">Creator is not customer 
or distributor?</combinations_data_value>
<combinations_data_value col="1" selected_row="7">Yes3 - No4
Yes3 - Yes4
</combinations_data_value>
<test_situation_row>
<value edge_id="33" name="1"/>
<value edge_id="15" name="Yes1"/>
<value edge_id="18" name="Yes2"/>
<value edge_id="21" name="Yes3"/>
<value edge_id="23" name="Yes4"/>
<value edge_id="28" name="Yes5"/>
<value edge_id="26" name="Yes6"/>
<value edge_id="31" name="No7"/>
<value edge_id="28" name="Yes5"/>
<value edge_id="27" name="No6"/>
<value edge_id="28" name="Yes5"/>
<value edge_id="26" name="Yes6"/>
<value edge_id="31" name="No7"/>
<value edge_id="29" name="No5"/>
</test_situation_row>
<test_situation_row>
<value edge_id="33" name="1"/>
<value edge_id="15" name="Yes1"/>
<value edge_id="18" name="Yes2"/>
<value edge_id="21" name="Yes3"/>
<value edge_id="23" name="Yes4"/>
<value edge_id="29" name="No5"/>
</test_situation_row>
<test_situation_row>
<value edge_id="33" name="1"/>
<value edge_id="15" name="Yes1"/>
<value edge_id="18" name="Yes2"/>
<value edge_id="21" name="Yes3"/>
<value edge_id="23" name="Yes4"/>
<value edge_id="28" name="Yes5"/>
<value edge_id="27" name="No6"/>
<value edge_id="29" name="No5"/>
</test_situation_row>
<test_situation_row>
<value edge_id="33" name="1"/>
<value edge_id="16" name="No1"/>
</test_situation_row>
<test_situation_row>
<value edge_id="33" name="1"/>
<value edge_id="15" name="Yes1"/>
<value edge_id="19" name="No2"/>
</test_situation_row>
<test_situation_row>
<value edge_id="33" name="1"/>
<value edge_id="15" name="Yes1"/>
<value edge_id="18" name="Yes2"/>
<value edge_id="20" name="No3"/>
</test_situation_row>
<test_situation_row>
<value edge_id="33" name="1"/>
<value edge_id="15" name="Yes1"/>
<value edge_id="18" name="Yes2"/>
<value edge_id="21" name="Yes3"/>
<value edge_id="22" name="No4"/>
</test_situation_row>
<test_situation_row>
<value edge_id="33" name="1"/>
<value edge_id="15" name="Yes1"/>
<value edge_id="18" name="Yes2"/>
<value edge_id="21" name="Yes3"/>
<value edge_id="23" name="Yes4"/>
<value edge_id="28" name="Yes5"/>
<value edge_id="26" name="Yes6"/>
<value edge_id="30" name="Yes7"/>
<value edge_id="24" name="Yes8"/>
</test_situation_row>
<test_situation_row>
<value edge_id="33" name="1"/>
<value edge_id="15" name="Yes1"/>
<value edge_id="18" name="Yes2"/>
<value edge_id="21" name="Yes3"/>
<value edge_id="23" name="Yes4"/>
<value edge_id="28" name="Yes5"/>
<value edge_id="26" name="Yes6"/>
<value edge_id="30" name="Yes7"/>
<value edge_id="25" name="No8"/>
</test_situation_row>
</test_case>
</graph>
</graphs>
<crud linkage="" version="">
<description/>
<entities>
<entity entity_id="E0">
<name>E1</name>
<description/>
<attributes/>
</entity>
<entity entity_id="E1">
<name>E2</name>
<description/>
<attributes/>
</entity>
<entity entity_id="E2">
<name>E3</name>
<description/>
<attributes/>
</entity>
</entities>
<functions>
<function function_id="F0">
<name>F1</name>
<description/>
</function>
<function function_id="F1">
<name>F2</name>
<description/>
</function>
<function function_id="F2">
<name>F3</name>
<description/>
</function>
</functions>
<actions>
<action entity_id_ref="E0" function_id_ref="F0">
<create imns="false" is_set="false">
<touched_attributes/>
</create>
<read imns="false" is_set="false">
<touched_attributes/>
</read>
<update imns="false" is_set="false">
<touched_attributes/>
</update>
<delete imns="false" is_set="false">
<touched_attributes/>
</delete>
<best_read imns="false" is_set="false"/>
<influences>
<influence entity_id_ref="E1" imns="false" is_set="false"/>
<influence entity_id_ref="E2" imns="false" is_set="false"/>
</influences>
</action>
<action entity_id_ref="E1" function_id_ref="F0">
<create imns="false" is_set="false">
<touched_attributes/>
</create>
<read imns="false" is_set="false">
<touched_attributes/>
</read>
<update imns="false" is_set="false">
<touched_attributes/>
</update>
<delete imns="false" is_set="false">
<touched_attributes/>
</delete>
<best_read imns="false" is_set="false"/>
<influences>
<influence entity_id_ref="E0" imns="false" is_set="false"/>
<influence entity_id_ref="E2" imns="false" is_set="false"/>
</influences>
</action>
<action entity_id_ref="E2" function_id_ref="F0">
<create imns="false" is_set="false">
<touched_attributes/>
</create>
<read imns="false" is_set="false">
<touched_attributes/>
</read>
<update imns="false" is_set="false">
<touched_attributes/>
</update>
<delete imns="false" is_set="false">
<touched_attributes/>
</delete>
<best_read imns="false" is_set="false"/>
<influences>
<influence entity_id_ref="E0" imns="false" is_set="false"/>
<influence entity_id_ref="E1" imns="false" is_set="false"/>
</influences>
</action>
<action entity_id_ref="E0" function_id_ref="F1">
<create imns="false" is_set="false">
<touched_attributes/>
</create>
<read imns="false" is_set="false">
<touched_attributes/>
</read>
<update imns="false" is_set="false">
<touched_attributes/>
</update>
<delete imns="false" is_set="false">
<touched_attributes/>
</delete>
<best_read imns="false" is_set="false"/>
<influences>
<influence entity_id_ref="E1" imns="false" is_set="false"/>
<influence entity_id_ref="E2" imns="false" is_set="false"/>
</influences>
</action>
<action entity_id_ref="E1" function_id_ref="F1">
<create imns="false" is_set="false">
<touched_attributes/>
</create>
<read imns="false" is_set="false">
<touched_attributes/>
</read>
<update imns="false" is_set="false">
<touched_attributes/>
</update>
<delete imns="false" is_set="false">
<touched_attributes/>
</delete>
<best_read imns="false" is_set="false"/>
<influences>
<influence entity_id_ref="E0" imns="false" is_set="false"/>
<influence entity_id_ref="E2" imns="false" is_set="false"/>
</influences>
</action>
<action entity_id_ref="E2" function_id_ref="F1">
<create imns="false" is_set="false">
<touched_attributes/>
</create>
<read imns="false" is_set="false">
<touched_attributes/>
</read>
<update imns="false" is_set="false">
<touched_attributes/>
</update>
<delete imns="false" is_set="false">
<touched_attributes/>
</delete>
<best_read imns="false" is_set="false"/>
<influences>
<influence entity_id_ref="E0" imns="false" is_set="false"/>
<influence entity_id_ref="E1" imns="false" is_set="false"/>
</influences>
</action>
<action entity_id_ref="E0" function_id_ref="F2">
<create imns="false" is_set="false">
<touched_attributes/>
</create>
<read imns="false" is_set="false">
<touched_attributes/>
</read>
<update imns="false" is_set="false">
<touched_attributes/>
</update>
<delete imns="false" is_set="false">
<touched_attributes/>
</delete>
<best_read imns="false" is_set="false"/>
<influences>
<influence entity_id_ref="E1" imns="false" is_set="false"/>
<influence entity_id_ref="E2" imns="false" is_set="false"/>
</influences>
</action>
<action entity_id_ref="E1" function_id_ref="F2">
<create imns="false" is_set="false">
<touched_attributes/>
</create>
<read imns="false" is_set="false">
<touched_attributes/>
</read>
<update imns="false" is_set="false">
<touched_attributes/>
</update>
<delete imns="false" is_set="false">
<touched_attributes/>
</delete>
<best_read imns="false" is_set="false"/>
<influences>
<influence entity_id_ref="E0" imns="false" is_set="false"/>
<influence entity_id_ref="E2" imns="false" is_set="false"/>
</influences>
</action>
<action entity_id_ref="E2" function_id_ref="F2">
<create imns="false" is_set="false">
<touched_attributes/>
</create>
<read imns="false" is_set="false">
<touched_attributes/>
</read>
<update imns="false" is_set="false">
<touched_attributes/>
</update>
<delete imns="false" is_set="false">
<touched_attributes/>
</delete>
<best_read imns="false" is_set="false"/>
<influences>
<influence entity_id_ref="E0" imns="false" is_set="false"/>
<influence entity_id_ref="E1" imns="false" is_set="false"/>
</influences>
</action>
</actions>
<test_cases/>
</crud>
</project>
